

jsonp2198({"rateDetail":{"paginator":{"items":1343,"lastPage":68,"page":1},"rateCount":{"picNum":456,"shop":0,"total":1437,"used":189},"rateDanceInfo":{"currentMilles":1493087409884,"intervalMilles":11834100680,"showChooseTopic":false,"storeType":4},"rateList":[{"aliMallSeller":false,"anony":true,"appendComment":"","attributes":"","attributesMap":"","aucNumId":"","auctionPicUrl":"","auctionPrice":"","auctionSku":"空调面板颜色:清爽白","auctionTitle":"","buyCount":0,"carServiceLocation":"","cmsSource":"天猫","displayRatePic":"","displayRateSum":0,"displayUserLink":"","displayUserNick":"z***8","displayUserNumId":"","displayUserRateLink":"","dsr":0.0,"fromMall":true,"fromMemory":0,"gmtCreateTime":1492783613000,"id":308198995266,"pics":["//img.alicdn.com/bao/uploaded/i2/1788106022458690619/TB2Dw6.mCXlpuFjy0FeXXcJbFXa_!!0-rate.jpg","//img.alicdn.com/bao/uploaded/i1/1788106022548168965/TB2FNELmwxlpuFjSszbXXcSVpXa_!!0-rate.jpg","//img.alicdn.com/bao/uploaded/i1/1788106022548248952/TB2Ocq3o7qvpuFjSZFhXXaOgXXa_!!0-rate.jpg","//img.alicdn.com/bao/uploaded/i1/1788106022548280846/TB2y6sumrtlpuFjSspfXXXLUpXa_!!0-rate.jpg"],"picsSmall":"","position":"920-11-33,36;920-11-0,3;620-11-26,32;520-11-4,14;","rateContent":"还行吧，就是京东做活动更划算，下次还要买几台装客房，效果也还不错，支持下","rateDate":"2017-04-21 22:06:53","reply":"","sellerId":3079263591,"serviceRateContent":"","structuredRateList":[],"tamllSweetLevel":2,"tmallSweetPic":"tmall-grade-t2-18.png","tradeEndTime":1492783291000,"tradeId":"","useful":true,"userIdEncryption":"","userInfo":"","userVipLevel":0,"userVipPic":""},{"aliMallSeller":false,"anony":true,"appendComment":"","attributes":"","attributesMap":"","aucNumId":"","auctionPicUrl":"","auctionPrice":"","auctionSku":"空调面板颜色:清爽白","auctionTitle":"","buyCount":0,"carServiceLocation":"","cmsSource":"天猫","displayRatePic":"","displayRateSum":0,"displayUserLink":"","displayUserNick":"j***4","displayUserNumId":"","displayUserRateLink":"","dsr":0.0,"fromMall":true,"fromMemory":0,"gmtCreateTime":1492525817000,"id":307636197935,"pics":["//img.alicdn.com/bao/uploaded/i4/1646306020372200198/TB2P9QwostnpuFjSZFKXXalFFXa_!!0-rate.jpg"],"picsSmall":"","position":"920-12-50,54;920-11-40,49;920-11-72,78;420-11-0,9;920-11-55,71;420-11-33,39;","rateContent":"物流速度没得说挺快，第一天买第二天就到了，而且专门的师傅上门安装，安装速度挺快，空调性能整体都不错，噪音也小，买的时候选的格力品牌看来我没选错。五星好平给了，继续加油。","rateDate":"2017-04-18 22:30:17","reply":"","sellerId":3079263591,"serviceRateContent":"","structuredRateList":[],"tamllSweetLevel":3,"tmallSweetPic":"tmall-grade-t3-18.png","tradeEndTime":1492525318000,"tradeId":"","useful":true,"userIdEncryption":"","userInfo":"","userVipLevel":0,"userVipPic":""},{"aliMallSeller":false,"anony":true,"appendComment":"","attributes":"","attributesMap":"","aucNumId":"","auctionPicUrl":"","auctionPrice":"","auctionSku":"空调面板颜色:清爽白","auctionTitle":"","buyCount":0,"carServiceLocation":"","cmsSource":"天猫","displayRatePic":"","displayRateSum":0,"displayUserLink":"","displayUserNick":"j***1","displayUserNumId":"","displayUserRateLink":"","dsr":0.0,"fromMall":true,"fromMemory":0,"gmtCreateTime":1492749806000,"id":308013825234,"pics":["//img.alicdn.com/bao/uploaded/i4/1936706022251775903/TB2MxMFmwxlpuFjy0FoXXa.lXXa_!!0-rate.jpg"],"picsSmall":"","position":"420-11-30,35;920-11-16,24;920-11-25,29;920-11-36,44;920-11-55,62;10120-12-0,15;","rateContent":"选择格力也是看中它的品牌和服务。总体来说还不错的，比较满意。物流送货快，安装师傅也很给力。试了一下制冷和制热，目前都比较满意。","rateDate":"2017-04-21 12:43:26","reply":"","sellerId":3079263591,"serviceRateContent":"","structuredRateList":[],"tamllSweetLevel":3,"tmallSweetPic":"tmall-grade-t3-18.png","tradeEndTime":1492749462000,"tradeId":"","useful":true,"userIdEncryption":"","userInfo":"","userVipLevel":0,"userVipPic":""},{"aliMallSeller":false,"anony":true,"appendComment":"","attributes":"","attributesMap":"","aucNumId":"","auctionPicUrl":"","auctionPrice":"","auctionSku":"空调面板颜色:清爽白","auctionTitle":"","buyCount":0,"carServiceLocation":"","cmsSource":"天猫","displayRatePic":"","displayRateSum":0,"displayUserLink":"","displayUserNick":"w***0","displayUserNumId":"","displayUserRateLink":"","dsr":0.0,"fromMall":true,"fromMemory":0,"gmtCreateTime":1492574351000,"id":307781572273,"pics":["//img.alicdn.com/bao/uploaded/i3/1686606020595362163/TB2jkPpmmhlpuFjSspkXXa1ApXa_!!0-rate.jpg","//img.alicdn.com/bao/uploaded/i2/1686606020629171114/TB2sT0OoNhmpuFjSZFyXXcLdFXa_!!0-rate.jpg"],"picsSmall":"","position":"920-11-49,54;10420-11-0,6;920-11-18,21;920-11-44,48;","rateContent":"发货速度很快，安装半个小时就搞定了，很满意，最好的功能就是可以由手机控制。省去遥控器了，功能很强。整体很满意。","rateDate":"2017-04-19 11:59:11","reply":"","sellerId":3079263591,"serviceRateContent":"","structuredRateList":[],"tamllSweetLevel":4,"tmallSweetPic":"tmall-grade-t4-18.png","tradeEndTime":1492251515000,"tradeId":"","useful":true,"userIdEncryption":"","userInfo":"","userVipLevel":0,"userVipPic":""},{"aliMallSeller":false,"anony":false,"appendComment":"","attributes":"","attributesMap":"","aucNumId":"","auctionPicUrl":"","auctionPrice":"","auctionSku":"空调面板颜色:清爽白","auctionTitle":"","buyCount":0,"carServiceLocation":"","cmsSource":"天猫","displayRatePic":"","displayRateSum":0,"displayUserLink":"","displayUserNick":"宸***0","displayUserNumId":"","displayUserRateLink":"","dsr":0.0,"fromMall":true,"fromMemory":0,"gmtCreateTime":1492929744000,"id":308076053848,"pics":"","picsSmall":"","position":"620-11-9,19;920-11-0,4;420-11-92,99;920-11-115,124;10120-11-107,114;10120-11-55,65;920-11-40,45;420-12-100,106;10120-11-30,39;","rateContent":"安装好了，试了下，制冷制热效果非常不错，空调基本没什么声音，格力大品牌值得信赖，给5星好评，特别感谢安装师傅，服务态度真的非常给力，没有额外收费，我家17楼就只收了100 块钱高空费。物流速度也很快，送货提前通知，态度也是非常好，非常满意的一次购物。","rateDate":"2017-04-23 14:42:24","reply":"","sellerId":3079263591,"serviceRateContent":"","structuredRateList":[],"tamllSweetLevel":0,"tmallSweetPic":"","tradeEndTime":1492576372000,"tradeId":"","useful":true,"userIdEncryption":"","userInfo":"","userVipLevel":0,"userVipPic":""},{"aliMallSeller":false,"anony":true,"appendComment":"","attributes":"","attributesMap":"","aucNumId":"","auctionPicUrl":"","auctionPrice":"","auctionSku":"空调面板颜色:清爽白","auctionTitle":"","buyCount":0,"carServiceLocation":"","cmsSource":"天猫","displayRatePic":"","displayRateSum":0,"displayUserLink":"","displayUserNick":"2***e","displayUserNumId":"","displayUserRateLink":"","dsr":0.0,"fromMall":true,"fromMemory":0,"gmtCreateTime":1492303305000,"id":307563280076,"pics":["//img.alicdn.com/bao/uploaded/i3/1001806018242258587/TB2cCSloipnpuFjSZFkXXc4ZpXa_!!0-rate.jpg"],"picsSmall":"","position":"920-11-0,6;920-11-82,86;620-12-61,68;10120-11-7,21;920-11-30,41;920-11-78,81;920-12-22,29;","rateContent":"好空调格力造，格力空调是我们一直信赖的产品，我买过很多空调，格力性能等各方面都不错，空调是昨天师傅过来安装的，安装完成后，试了下制热效果，小卧室1匹的够用，还不错。必须得赞。","rateDate":"2017-04-16 08:41:45","reply":"","sellerId":3079263591,"serviceRateContent":"","structuredRateList":[],"tamllSweetLevel":4,"tmallSweetPic":"tmall-grade-t4-18.png","tradeEndTime":1491740380000,"tradeId":"","useful":true,"userIdEncryption":"","userInfo":"","userVipLevel":0,"userVipPic":""},{"aliMallSeller":false,"anony":true,"appendComment":"","attributes":"","attributesMap":"","aucNumId":"","auctionPicUrl":"","auctionPrice":"","auctionSku":"空调面板颜色:清爽白","auctionTitle":"","buyCount":0,"carServiceLocation":"","cmsSource":"天猫","displayRatePic":"","displayRateSum":0,"displayUserLink":"","displayUserNick":"w***8","displayUserNumId":"","displayUserRateLink":"","dsr":0.0,"fromMall":true,"fromMemory":0,"gmtCreateTime":1492578407000,"id":307864314092,"pics":["//img.alicdn.com/bao/uploaded/i2/1295306020821422267/TB2_QFZoNhmpuFjSZFyXXcLdFXa_!!0-rate.jpg"],"picsSmall":"","position":"920-11-0,9;920-11-16,19;920-11-10,15;920-11-20,24;","rateContent":"特别好用的一款空调，外形也新颖，性能好，全家满意。","rateDate":"2017-04-19 13:06:47","reply":"","sellerId":3079263591,"serviceRateContent":"","structuredRateList":[],"tamllSweetLevel":2,"tmallSweetPic":"tmall-grade-t2-18.png","tradeEndTime":1491601555000,"tradeId":"","useful":true,"userIdEncryption":"","userInfo":"","userVipLevel":0,"userVipPic":""},{"aliMallSeller":false,"anony":true,"appendComment":"","attributes":"","attributesMap":"","aucNumId":"","auctionPicUrl":"","auctionPrice":"","auctionSku":"空调面板颜色:清爽白","auctionTitle":"","buyCount":0,"carServiceLocation":"","cmsSource":"天猫","displayRatePic":"","displayRateSum":0,"displayUserLink":"","displayUserNick":"公***1","displayUserNumId":"","displayUserRateLink":"","dsr":0.0,"fromMall":true,"fromMemory":0,"gmtCreateTime":1492678325000,"id":308063843596,"pics":["//img.alicdn.com/bao/uploaded/i4/1515806021678876240/TB2uKhDmwJkpuFjSszcXXXfsFXa_!!0-rate.jpg","//img.alicdn.com/bao/uploaded/i3/1515806021678892237/TB2VrimmuJ8puFjy1XbXXagqVXa_!!0-rate.jpg"],"picsSmall":"","position":"920-11-0,8;10120-11-9,17;920-11-24,30;420-11-18,23;","rateContent":"买个爸妈用的不错，安装师傅态度也好！物流也算快。整体还算满意。","rateDate":"2017-04-20 16:52:05","reply":"","sellerId":3079263591,"serviceRateContent":"","structuredRateList":[],"tamllSweetLevel":1,"tmallSweetPic":"tmall-grade-t1-18.png","tradeEndTime":1492075474000,"tradeId":"","useful":true,"userIdEncryption":"","userInfo":"","userVipLevel":0,"userVipPic":""},{"aliMallSeller":false,"anony":true,"appendComment":"","attributes":"","attributesMap":"","aucNumId":"","auctionPicUrl":"","auctionPrice":"","auctionSku":"空调面板颜色:清爽白","auctionTitle":"","buyCount":0,"carServiceLocation":"","cmsSource":"天猫","displayRatePic":"","displayRateSum":0,"displayUserLink":"","displayUserNick":"c***1","displayUserNumId":"","displayUserRateLink":"","dsr":0.0,"fromMall":true,"fromMemory":0,"gmtCreateTime":1492761522000,"id":307969141262,"pics":["//img.alicdn.com/bao/uploaded/i4/1008606022246581936/TB2XKzEmxdkpuFjy0FbXXaNnpXa_!!0-rate.jpg","//img.alicdn.com/bao/uploaded/i1/1008606022383103432/TB2xSOco7qvpuFjSZFhXXaOgXXa_!!0-rate.jpg","//img.alicdn.com/bao/uploaded/i3/1008606022403342603/TB2lNn2mrFlpuFjy0FgXXbRBVXa_!!0-rate.jpg"],"picsSmall":"","position":"920-11-16,20;620-11-11,15;10120-11-0,10;","rateContent":"安装师傅态度好做工细，产品一流！值得拥有！","rateDate":"2017-04-21 15:58:42","reply":"","sellerId":3079263591,"serviceRateContent":"","structuredRateList":[],"tamllSweetLevel":4,"tmallSweetPic":"tmall-grade-t4-18.png","tradeEndTime":1492761411000,"tradeId":"","useful":true,"userIdEncryption":"","userInfo":"","userVipLevel":0,"userVipPic":""},{"aliMallSeller":false,"anony":true,"appendComment":"","attributes":"","attributesMap":"","aucNumId":"","auctionPicUrl":"","auctionPrice":"","auctionSku":"空调面板颜色:清爽白","auctionTitle":"","buyCount":0,"carServiceLocation":"","cmsSource":"天猫","displayRatePic":"","displayRateSum":0,"displayUserLink":"","displayUserNick":"o***9","displayUserNumId":"","displayUserRateLink":"","dsr":0.0,"fromMall":true,"fromMemory":0,"gmtCreateTime":1492576144000,"id":307717329816,"pics":["//img.alicdn.com/bao/uploaded/i2/156129110/TB2JppNoNxmpuFjSZFNXXXrRXXa_!!156129110-2-rate.png"],"picsSmall":"","position":"620-11-9,14;920-11-0,4;920-11-29,31;10120-11-16,28;420-11-16,28;","rateContent":"空调不错，很静音，制冷效果好， 送货和安装人员态度都很好，满意！","rateDate":"2017-04-19 12:29:04","reply":"","sellerId":3079263591,"serviceRateContent":"","structuredRateList":[],"tamllSweetLevel":4,"tmallSweetPic":"tmall-grade-t4-18.png","tradeEndTime":1492259083000,"tradeId":"","useful":true,"userIdEncryption":"","userInfo":"","userVipLevel":0,"userVipPic":""},{"aliMallSeller":false,"anony":true,"appendComment":"","attributes":"","attributesMap":"","aucNumId":"","auctionPicUrl":"","auctionPrice":"","auctionSku":"空调面板颜色:清爽白","auctionTitle":"","buyCount":0,"carServiceLocation":"","cmsSource":"天猫","displayRatePic":"","displayRateSum":0,"displayUserLink":"","displayUserNick":"h***9","displayUserNumId":"","displayUserRateLink":"","dsr":0.0,"fromMall":true,"fromMemory":0,"gmtCreateTime":1492598987000,"id":307761525011,"pics":["//img.alicdn.com/bao/uploaded/i4/1370106020954502150/TB2bJWsoUlnpuFjSZFjXXXTaVXa_!!0-rate.jpg"],"picsSmall":"","position":"920-11-33,43;920-11-0,9;420-11-10,14;120-11-26,32;920-11-15,21;10120-11-22,25;","rateContent":"外观大气简洁很喜欢，送货很快，安装师傅专业、态度好。售前售后满分，买空调还是格力最放心！","rateDate":"2017-04-19 18:49:47","reply":"","sellerId":3079263591,"serviceRateContent":"","structuredRateList":[],"tamllSweetLevel":2,"tmallSweetPic":"tmall-grade-t2-18.png","tradeEndTime":1492248995000,"tradeId":"","useful":true,"userIdEncryption":"","userInfo":"","userVipLevel":0,"userVipPic":""},{"aliMallSeller":false,"anony":true,"appendComment":"","attributes":"","attributesMap":"","aucNumId":"","auctionPicUrl":"","auctionPrice":"","auctionSku":"空调面板颜色:清爽白","auctionTitle":"","buyCount":0,"carServiceLocation":"","cmsSource":"天猫","displayRatePic":"","displayRateSum":0,"displayUserLink":"","displayUserNick":"玉***8","displayUserNumId":"","displayUserRateLink":"","dsr":0.0,"fromMall":true,"fromMemory":0,"gmtCreateTime":1492236385000,"id":307432224763,"pics":["//img.alicdn.com/bao/uploaded/i2/1987506017772723459/TB21iw_n4lmpuFjSZPfXXc9iXXa_!!0-rate.jpg"],"picsSmall":"","position":"920-11-19,29;920-11-47,55;920-11-14,18;10120-12-56,65;920-12-10,13;","rateContent":"想买空调的别犹豫了，大品牌，就是放心。这款绝对是不错的选择。第一次从网上买这么大又贵重的东西，但是这次特别满意。谢谢每一位服务人员～加油","rateDate":"2017-04-15 14:06:25","reply":"","sellerId":3079263591,"serviceRateContent":"","structuredRateList":[],"tamllSweetLevel":1,"tmallSweetPic":"tmall-grade-t1-18.png","tradeEndTime":1492236203000,"tradeId":"","useful":true,"userIdEncryption":"","userInfo":"","userVipLevel":0,"userVipPic":""},{"aliMallSeller":false,"anony":true,"appendComment":"","attributes":"","attributesMap":"","aucNumId":"","auctionPicUrl":"","auctionPrice":"","auctionSku":"空调面板颜色:清爽白","auctionTitle":"","buyCount":0,"carServiceLocation":"","cmsSource":"天猫","displayRatePic":"","displayRateSum":0,"displayUserLink":"","displayUserNick":"h***0","displayUserNumId":"","displayUserRateLink":"","dsr":0.0,"fromMall":true,"fromMemory":0,"gmtCreateTime":1492862902000,"id":308094222621,"pics":["//img.alicdn.com/bao/uploaded/i1/1476506023102179408/TB2.JJ4mH0kpuFjy0FjXXcBbVXa_!!0-rate.jpg","//img.alicdn.com/bao/uploaded/i2/1476506023153994832/TB2GZBCphxmpuFjSZFNXXXrRXXa_!!0-rate.jpg"],"picsSmall":"","position":"420-11-13,17;920-11-28,36;10120-11-18,27;","rateContent":"当天付款第二天就送过来了。速度很快。安装预约师傅服务好。安装到位值得购买。老品牌信得过","rateDate":"2017-04-22 20:08:22","reply":"","sellerId":3079263591,"serviceRateContent":"","structuredRateList":[],"tamllSweetLevel":1,"tmallSweetPic":"tmall-grade-t1-18.png","tradeEndTime":1492862774000,"tradeId":"","useful":true,"userIdEncryption":"","userInfo":"","userVipLevel":0,"userVipPic":""},{"aliMallSeller":false,"anony":false,"appendComment":"","attributes":"","attributesMap":"","aucNumId":"","auctionPicUrl":"","auctionPrice":"","auctionSku":"空调面板颜色:清爽白","auctionTitle":"","buyCount":0,"carServiceLocation":"","cmsSource":"天猫","displayRatePic":"","displayRateSum":0,"displayUserLink":"","displayUserNick":"安***8","displayUserNumId":"","displayUserRateLink":"","dsr":0.0,"fromMall":true,"fromMemory":0,"gmtCreateTime":1492595467000,"id":307960672120,"pics":["//img.alicdn.com/bao/uploaded/i3/1542406020855888090/TB2qCb9mmhlpuFjSspkXXa1ApXa_!!0-rate.jpg","//img.alicdn.com/bao/uploaded/i1/1542406020943352929/TB2AAQhml0kpuFjSsziXXa.oVXa_!!0-rate.jpg"],"picsSmall":"","position":"920-11-0,4;420-11-5,9;920-11-10,19;920-11-20,28;","rateContent":"空调很好，物流很快，安装师傅安装的很好，总得来说还算满意，就是答应的赠品还没给，希望店家说到做到。","rateDate":"2017-04-19 17:51:07","reply":"","sellerId":3079263591,"serviceRateContent":"","structuredRateList":[],"tamllSweetLevel":3,"tmallSweetPic":"tmall-grade-t3-18.png","tradeEndTime":1492250261000,"tradeId":"","useful":true,"userIdEncryption":"","userInfo":"","userVipLevel":0,"userVipPic":""},{"aliMallSeller":false,"anony":true,"appendComment":"","attributes":"","attributesMap":"","aucNumId":"","auctionPicUrl":"","auctionPrice":"","auctionSku":"空调面板颜色:清爽白","auctionTitle":"","buyCount":0,"carServiceLocation":"","cmsSource":"天猫","displayRatePic":"","displayRateSum":0,"displayUserLink":"","displayUserNick":"玉***8","displayUserNumId":"","displayUserRateLink":"","dsr":0.0,"fromMall":true,"fromMemory":0,"gmtCreateTime":1492236029000,"id":307288872219,"pics":["//img.alicdn.com/bao/uploaded/i1/1987506017855181269/TB235Q8lSFjpuFjSszhXXaBuVXa_!!0-rate.jpg"],"picsSmall":"","position":"10120-11-7,13;10120-12-29,37;10120-11-14,24;","rateContent":"一次买了三台，卖家特别给力，每一次的服务都很到位，又关心。谢谢各位服务人员，真心的～祝，生意兴隆～","rateDate":"2017-04-15 14:00:29","reply":"","sellerId":3079263591,"serviceRateContent":"","structuredRateList":[],"tamllSweetLevel":1,"tmallSweetPic":"tmall-grade-t1-18.png","tradeEndTime":1492235887000,"tradeId":"","useful":true,"userIdEncryption":"","userInfo":"","userVipLevel":0,"userVipPic":""},{"aliMallSeller":false,"anony":true,"appendComment":"","attributes":"","attributesMap":"","aucNumId":"","auctionPicUrl":"","auctionPrice":"","auctionSku":"空调面板颜色:清爽白","auctionTitle":"","buyCount":0,"carServiceLocation":"","cmsSource":"天猫","displayRatePic":"","displayRateSum":0,"displayUserLink":"","displayUserNick":"n***9","displayUserNumId":"","displayUserRateLink":"","dsr":0.0,"fromMall":true,"fromMemory":0,"gmtCreateTime":1492216898000,"id":307422602138,"pics":["//img.alicdn.com/bao/uploaded/i2/1149506017561186635/TB2jssfn4BmpuFjSZFDXXXD8pXa_!!0-rate.jpg"],"picsSmall":"","position":"920-11-13,20;920-11-30,37;920-11-21,29;420-11-0,5;920-11-6,12;","rateContent":"送货特别快，外观也很漂亮，格力品质就是好，安装师傅也很专业，这次购物很满意！","rateDate":"2017-04-15 08:41:38","reply":"","sellerId":3079263591,"serviceRateContent":"","structuredRateList":[],"tamllSweetLevel":4,"tmallSweetPic":"tmall-grade-t4-18.png","tradeEndTime":1491886870000,"tradeId":"","useful":true,"userIdEncryption":"","userInfo":"","userVipLevel":0,"userVipPic":""},{"aliMallSeller":false,"anony":false,"appendComment":"","attributes":"","attributesMap":"","aucNumId":"","auctionPicUrl":"","auctionPrice":"","auctionSku":"空调面板颜色:清爽白","auctionTitle":"","buyCount":0,"carServiceLocation":"","cmsSource":"天猫","displayRatePic":"","displayRateSum":0,"displayUserLink":"","displayUserNick":"丿***子","displayUserNumId":"","displayUserRateLink":"","dsr":0.0,"fromMall":true,"fromMemory":0,"gmtCreateTime":1492053695000,"id":307009532051,"pics":["//img.alicdn.com/bao/uploaded/i2/1481106016170513531/TB2xQZJlB8kpuFjSspeXXc7IpXa_!!0-rate.jpg","//img.alicdn.com/bao/uploaded/i3/1481106016263192479/TB2b8YWnJRopuFjSZFtXXcanpXa_!!0-rate.jpg"],"picsSmall":"","position":"10120-12-26,38;10120-11-26,38;920-11-18,25;420-11-11,17;920-11-44,46;920-11-47,55;10120-11-39,43;10120-11-0,10;","rateContent":"大牌厂商服务就是到位，预约安装很快，师傅干活很利索，店铺客服小添也服务很周到，有问必答，很好，很满意的一次网购","rateDate":"2017-04-13 11:21:35","reply":"","sellerId":3079263591,"serviceRateContent":"","structuredRateList":[],"tamllSweetLevel":4,"tmallSweetPic":"tmall-grade-t4-18.png","tradeEndTime":1492053147000,"tradeId":"","useful":true,"userIdEncryption":"","userInfo":"","userVipLevel":0,"userVipPic":""},{"aliMallSeller":false,"anony":true,"appendComment":"","attributes":"","attributesMap":"","aucNumId":"","auctionPicUrl":"","auctionPrice":"","auctionSku":"空调面板颜色:清爽白","auctionTitle":"","buyCount":0,"carServiceLocation":"","cmsSource":"天猫","displayRatePic":"","displayRateSum":0,"displayUserLink":"","displayUserNick":"朱***腾","displayUserNumId":"","displayUserRateLink":"","dsr":0.0,"fromMall":true,"fromMemory":0,"gmtCreateTime":1491532739000,"id":306470913089,"pics":["//img.alicdn.com/bao/uploaded/i3/1386006011069168261/TB276rekHXlpuFjy1zbXXb_qpXa_!!0-rate.jpg","//img.alicdn.com/bao/uploaded/i2/1386006011083732824/TB2kQHUmItnpuFjSZFvXXbcTpXa_!!0-rate.jpg","//img.alicdn.com/bao/uploaded/i2/1386006011168207856/TB2r_m2kR0kpuFjy1zdXXXuUVXa_!!0-rate.jpg"],"picsSmall":"","position":"920-11-0,12;420-12-20,39;420-11-48,62;","rateContent":"首先来说外观是挺好看的啊！白色的很大气，而去速度很快把前天11点晚上11点拍的，昨天货物送到了，今天早上师傅来安装速度也很快，走的时候也帮我把垃圾都带走了，而且可以使用阿里智能系统不需要遥控器啦全部好评","rateDate":"2017-04-07 10:38:59","reply":"","sellerId":3079263591,"serviceRateContent":"","structuredRateList":[],"tamllSweetLevel":3,"tmallSweetPic":"tmall-grade-t3-18.png","tradeEndTime":1491532594000,"tradeId":"","useful":true,"userIdEncryption":"","userInfo":"","userVipLevel":0,"userVipPic":""},{"aliMallSeller":false,"anony":true,"appendComment":"","attributes":"","attributesMap":"","aucNumId":"","auctionPicUrl":"","auctionPrice":"","auctionSku":"空调面板颜色:清爽白","auctionTitle":"","buyCount":0,"carServiceLocation":"","cmsSource":"天猫","displayRatePic":"","displayRateSum":0,"displayUserLink":"","displayUserNick":"c***2","displayUserNumId":"","displayUserRateLink":"","dsr":0.0,"fromMall":true,"fromMemory":0,"gmtCreateTime":1492559860000,"id":307634194201,"pics":"","picsSmall":"","position":"920-11-0,8;920-11-47,49;920-11-25,38;","rateContent":"空调安装非常及时，早上电话联系，下午就上门安装了！空调安装好之后也开机测试过，空调相当的静音，OK！","rateDate":"2017-04-19 07:57:40","reply":"","sellerId":3079263591,"serviceRateContent":"","structuredRateList":[],"tamllSweetLevel":4,"tmallSweetPic":"tmall-grade-t4-18.png","tradeEndTime":1492559600000,"tradeId":"","useful":true,"userIdEncryption":"","userInfo":"","userVipLevel":0,"userVipPic":""},{"aliMallSeller":false,"anony":true,"appendComment":"","attributes":"","attributesMap":"","aucNumId":"","auctionPicUrl":"","auctionPrice":"","auctionSku":"空调面板颜色:清爽白","auctionTitle":"","buyCount":0,"carServiceLocation":"","cmsSource":"天猫","displayRatePic":"","displayRateSum":0,"displayUserLink":"","displayUserNick":"王***1","displayUserNumId":"","displayUserRateLink":"","dsr":0.0,"fromMall":true,"fromMemory":0,"gmtCreateTime":1492560101000,"id":307687615333,"pics":"","picsSmall":"","position":"920-11-33,38;10120-11-11,14;920-11-15,19;920-11-59,63;","rateContent":"货没到就联系按装空调，服务好，品质更好，承诺七天返差价，有试诚信。为格力点赞。以后现身说法让邻居，朋友都买你家的空调。5分好评。","rateDate":"2017-04-19 08:01:41","reply":"","sellerId":3079263591,"serviceRateContent":"","structuredRateList":[],"tamllSweetLevel":3,"tmallSweetPic":"tmall-grade-t3-18.png","tradeEndTime":1492559877000,"tradeId":"","useful":true,"userIdEncryption":"","userInfo":"","userVipLevel":0,"userVipPic":""}],"searchinfo":"","tags":""}})