
"rateDetail":{"paginator":{"items":1798,"lastPage":90,"page":89},"rateCount":{"picNum":482,"shop":0,"total":1798,"used":163},"rateDanceInfo":{"currentMilles":1493971254096,"intervalMilles":1747893920,"showChooseTopic":false,"storeType":4},"rateList":[{"aliMallSeller":false,"anony":false,"appendComment":"","attributes":"","attributesMap":"","aucNumId":"","auctionPicUrl":"","auctionPrice":"","auctionSku":"空调面板颜色:白色","auctionTitle":"","buyCount":0,"carServiceLocation":"","cmsSource":"天猫","displayRatePic":"","displayRateSum":0,"displayUserLink":"","displayUserNick":"h***7","displayUserNumId":"","displayUserRateLink":"","dsr":0.0,"fromMall":true,"fromMemory":0,"gmtCreateTime":1493858121000,"id":309225487417,"pics":"","picsSmall":"","position":"","rateContent":"格力空调一直不错，还是选择格力","rateDate":"2017-05-04 08:35:21","reply":"","sellerId":3079263591,"serviceRateContent":"安装师傅非常给力，赞一个！","structuredRateList":[],"tamllSweetLevel":3,"tmallSweetPic":"tmall-grade-t3-18.png","tradeEndTime":1493857942000,"tradeId":"","useful":true,"userIdEncryption":"","userInfo":"","userVipLevel":0,"userVipPic":""},{"aliMallSeller":false,"anony":true,"appendComment":"","attributes":"","attributesMap":"","aucNumId":"","auctionPicUrl":"","auctionPrice":"","auctionSku":"空调面板颜色:白色","auctionTitle":"","buyCount":0,"carServiceLocation":"","cmsSource":"天猫","displayRatePic":"","displayRateSum":0,"displayUserLink":"","displayUserNick":"l***a","displayUserNumId":"","displayUserRateLink":"","dsr":0.0,"fromMall":true,"fromMemory":0,"gmtCreateTime":1493856572000,"id":309315678696,"pics":["//img.alicdn.com/bao/uploaded/i1/1495506031130282931/TB2nfGWn4XkpuFjy0FiXXbUfFXa_!!0-rate.jpg"],"picsSmall":"","position":"","rateContent":"已经装上了，只付了支架费50元，无论送货师傅还是安装师傅态度超级好，空调未使用，待使用后再来追评！","rateDate":"2017-05-04 08:09:32","reply":"","sellerId":3079263591,"serviceRateContent":"","structuredRateList":[],"tamllSweetLevel":3,"tmallSweetPic":"tmall-grade-t3-18.png","tradeEndTime":1493856428000,"tradeId":"","useful":true,"userIdEncryption":"","userInfo":"","userVipLevel":0,"userVipPic":""},{"aliMallSeller":false,"anony":true,"appendComment":"","attributes":"","attributesMap":"","aucNumId":"","auctionPicUrl":"","auctionPrice":"","auctionSku":"空调面板颜色:白色","auctionTitle":"","buyCount":0,"carServiceLocation":"","cmsSource":"天猫","displayRatePic":"","displayRateSum":0,"displayUserLink":"","displayUserNick":"可***q","displayUserNumId":"","displayUserRateLink":"","dsr":0.0,"fromMall":true,"fromMemory":0,"gmtCreateTime":1493897178000,"id":309537267856,"pics":["//img.alicdn.com/bao/uploaded/i4/1946506031564807260/TB2E3cpn84lpuFjy1zjXXcAKpXa_!!0-rate.jpg"],"picsSmall":"","position":"","rateContent":"买了3台格力空调 发货准时 当天到货后当天厂家就打电话给我预约安装时间 安装师傅服务不错","rateDate":"2017-05-04 19:26:18","reply":"","sellerId":3079263591,"serviceRateContent":"","structuredRateList":[],"tamllSweetLevel":3,"tmallSweetPic":"tmall-grade-t3-18.png","tradeEndTime":1493774174000,"tradeId":"","useful":true,"userIdEncryption":"","userInfo":"","userVipLevel":0,"userVipPic":""},{"aliMallSeller":false,"anony":true,"appendComment":"","attributes":"","attributesMap":"","aucNumId":"","auctionPicUrl":"","auctionPrice":"","auctionSku":"空调面板颜色:白色","auctionTitle":"","buyCount":0,"carServiceLocation":"","cmsSource":"天猫","displayRatePic":"","displayRateSum":0,"displayUserLink":"","displayUserNick":"y***8","displayUserNumId":"","displayUserRateLink":"","dsr":0.0,"fromMall":true,"fromMemory":0,"gmtCreateTime":1493907881000,"id":309554304631,"pics":"","picsSmall":"","position":"","rateContent":"声音有点大可承受范围，安装师傅很热心晚上9点钟还上门安装，在这说声谢谢了。","rateDate":"2017-05-04 22:24:41","reply":"","sellerId":3079263591,"serviceRateContent":"","structuredRateList":[],"tamllSweetLevel":2,"tmallSweetPic":"tmall-grade-t2-18.png","tradeEndTime":1493866988000,"tradeId":"","useful":true,"userIdEncryption":"","userInfo":"","userVipLevel":0,"userVipPic":""},{"aliMallSeller":false,"anony":true,"appendComment":"","attributes":"","attributesMap":"","aucNumId":"","auctionPicUrl":"","auctionPrice":"","auctionSku":"空调面板颜色:白色","auctionTitle":"","buyCount":0,"carServiceLocation":"","cmsSource":"天猫","displayRatePic":"","displayRateSum":0,"displayUserLink":"","displayUserNick":"s***6","displayUserNumId":"","displayUserRateLink":"","dsr":0.0,"fromMall":true,"fromMemory":0,"gmtCreateTime":1493881931000,"id":309506922254,"pics":"","picsSmall":"","position":"","rateContent":"第二次买，安装快，服务好，等试用后追评","rateDate":"2017-05-04 15:12:11","reply":"","sellerId":3079263591,"serviceRateContent":"","structuredRateList":[],"tamllSweetLevel":4,"tmallSweetPic":"tmall-grade-t4-18.png","tradeEndTime":1493564141000,"tradeId":"","useful":true,"userIdEncryption":"","userInfo":"","userVipLevel":0,"userVipPic":""},{"aliMallSeller":false,"anony":false,"appendComment":"","attributes":"","attributesMap":"","aucNumId":"","auctionPicUrl":"","auctionPrice":"","auctionSku":"空调面板颜色:白色","auctionTitle":"","buyCount":0,"carServiceLocation":"","cmsSource":"天猫","displayRatePic":"","displayRateSum":0,"displayUserLink":"","displayUserNick":"k***n","displayUserNumId":"","displayUserRateLink":"","dsr":0.0,"fromMall":true,"fromMemory":0,"gmtCreateTime":1493910224000,"id":309360949449,"pics":"","picsSmall":"","position":"","rateContent":"非常愉快。非常开心。超级凉爽。还无线控制哦","rateDate":"2017-05-04 23:03:44","reply":"","sellerId":3079263591,"serviceRateContent":"","structuredRateList":[],"tamllSweetLevel":4,"tmallSweetPic":"tmall-grade-t4-18.png","tradeEndTime":1493477012000,"tradeId":"","useful":true,"userIdEncryption":"","userInfo":"","userVipLevel":0,"userVipPic":""},{"aliMallSeller":false,"anony":true,"appendComment":"","attributes":"","attributesMap":"","aucNumId":"","auctionPicUrl":"","auctionPrice":"","auctionSku":"空调面板颜色:白色","auctionTitle":"","buyCount":0,"carServiceLocation":"","cmsSource":"天猫","displayRatePic":"","displayRateSum":0,"displayUserLink":"","displayUserNick":"a***1","displayUserNumId":"","displayUserRateLink":"","dsr":0.0,"fromMall":true,"fromMemory":0,"gmtCreateTime":1493873881000,"id":309348750689,"pics":["//img.alicdn.com/bao/uploaded/i1/1396006031177569826/TB2aTvqn80kpuFjy1zdXXXuUVXa_!!0-rate.jpg"],"picsSmall":"","position":"","rateContent":"货已经收到，还没安装，等装好以后，感受以后再作评价，相信格力空调的品牌。不过快递有待改善，本来只需三个小时，花了5天才到。","rateDate":"2017-05-04 12:58:01","reply":"","sellerId":3079263591,"serviceRateContent":"","structuredRateList":[],"tamllSweetLevel":3,"tmallSweetPic":"tmall-grade-t3-18.png","tradeEndTime":1493873622000,"tradeId":"","useful":true,"userIdEncryption":"","userInfo":"","userVipLevel":0,"userVipPic":""},{"aliMallSeller":false,"anony":true,"appendComment":"","attributes":"","attributesMap":"","aucNumId":"","auctionPicUrl":"","auctionPrice":"","auctionSku":"空调面板颜色:白色","auctionTitle":"","buyCount":0,"carServiceLocation":"","cmsSource":"天猫","displayRatePic":"","displayRateSum":0,"displayUserLink":"","displayUserNick":"邓***发","displayUserNumId":"","displayUserRateLink":"","dsr":0.0,"fromMall":true,"fromMemory":0,"gmtCreateTime":1493877991000,"id":309363160444,"pics":"","picsSmall":"","position":"","rateContent":"快递并没有按时派送，打电话去催各种理由然后说改时间派，不满意","rateDate":"2017-05-04 14:06:31","reply":"","sellerId":3079263591,"serviceRateContent":"","structuredRateList":[],"tamllSweetLevel":3,"tmallSweetPic":"tmall-grade-t3-18.png","tradeEndTime":1493469462000,"tradeId":"","useful":true,"userIdEncryption":"","userInfo":"","userVipLevel":0,"userVipPic":""},{"aliMallSeller":false,"anony":false,"appendComment":"","attributes":"","attributesMap":"","aucNumId":"","auctionPicUrl":"","auctionPrice":"","auctionSku":"空调面板颜色:白色","auctionTitle":"","buyCount":0,"carServiceLocation":"","cmsSource":"天猫","displayRatePic":"","displayRateSum":0,"displayUserLink":"","displayUserNick":"她***l","displayUserNumId":"","displayUserRateLink":"","dsr":0.0,"fromMall":true,"fromMemory":0,"gmtCreateTime":1493878913000,"id":309382366723,"pics":["//img.alicdn.com/bao/uploaded/i4/1566406031239028842/TB2HNgan3JlpuFjSspjXXcT.pXa_!!0-rate.jpg","//img.alicdn.com/bao/uploaded/i3/1566406031332711432/TB2jCPYn3FkpuFjSspnXXb4qFXa_!!0-rate.jpg"],"picsSmall":"","position":"","rateContent":"很不错，到货当天安装师傅就上门来安装。","rateDate":"2017-05-04 14:21:53","reply":"","sellerId":3079263591,"serviceRateContent":"","structuredRateList":[],"tamllSweetLevel":3,"tmallSweetPic":"tmall-grade-t3-18.png","tradeEndTime":1493436512000,"tradeId":"","useful":true,"userIdEncryption":"","userInfo":"","userVipLevel":0,"userVipPic":""},{"aliMallSeller":false,"anony":true,"appendComment":"","attributes":"","attributesMap":"","aucNumId":"","auctionPicUrl":"","auctionPrice":"","auctionSku":"空调面板颜色:白色","auctionTitle":"","buyCount":0,"carServiceLocation":"","cmsSource":"天猫","displayRatePic":"","displayRateSum":0,"displayUserLink":"","displayUserNick":"智***0","displayUserNumId":"","displayUserRateLink":"","dsr":0.0,"fromMall":true,"fromMemory":0,"gmtCreateTime":1493900403000,"id":309308645830,"pics":["//img.alicdn.com/bao/uploaded/i1/1018906031504433265/TB2Q_kjn3xlpuFjSszgXXcJdpXa_!!0-rate.jpg"],"picsSmall":"","position":"","rateContent":"的好，己安装好了","rateDate":"2017-05-04 20:20:03","reply":"","sellerId":3079263591,"serviceRateContent":"","structuredRateList":[],"tamllSweetLevel":3,"tmallSweetPic":"tmall-grade-t3-18.png","tradeEndTime":1493900315000,"tradeId":"","useful":true,"userIdEncryption":"","userInfo":"","userVipLevel":0,"userVipPic":""},{"aliMallSeller":false,"anony":true,"appendComment":"","attributes":"","attributesMap":"","aucNumId":"","auctionPicUrl":"","auctionPrice":"","auctionSku":"空调面板颜色:白色","auctionTitle":"","buyCount":0,"carServiceLocation":"","cmsSource":"天猫","displayRatePic":"","displayRateSum":0,"displayUserLink":"","displayUserNick":"临***6","displayUserNumId":"","displayUserRateLink":"","dsr":0.0,"fromMall":true,"fromMemory":0,"gmtCreateTime":1493896276000,"id":309327721369,"pics":"","picsSmall":"","position":"","rateContent":"还不错，物美价廉！","rateDate":"2017-05-04 19:11:16","reply":"","sellerId":3079263591,"serviceRateContent":"","structuredRateList":[],"tamllSweetLevel":2,"tmallSweetPic":"tmall-grade-t2-18.png","tradeEndTime":1493896213000,"tradeId":"","useful":true,"userIdEncryption":"","userInfo":"","userVipLevel":0,"userVipPic":""},{"aliMallSeller":false,"anony":true,"appendComment":"","attributes":"","attributesMap":"","aucNumId":"","auctionPicUrl":"","auctionPrice":"","auctionSku":"空调面板颜色:白色","auctionTitle":"","buyCount":0,"carServiceLocation":"","cmsSource":"天猫","displayRatePic":"","displayRateSum":0,"displayUserLink":"","displayUserNick":"c***9","displayUserNumId":"","displayUserRateLink":"","dsr":0.0,"fromMall":true,"fromMemory":0,"gmtCreateTime":1493914335000,"id":309543962439,"pics":"","picsSmall":"","position":"","rateContent":"物流很快，第二天就收到空调了。第三天就上门安装。售后服务也很好。","rateDate":"2017-05-05 00:12:15","reply":"","sellerId":3079263591,"serviceRateContent":"","structuredRateList":[],"tamllSweetLevel":3,"tmallSweetPic":"tmall-grade-t3-18.png","tradeEndTime":1493914251000,"tradeId":"","useful":true,"userIdEncryption":"","userInfo":"","userVipLevel":0,"userVipPic":""},{"aliMallSeller":false,"anony":true,"appendComment":"","attributes":"","attributesMap":"","aucNumId":"","auctionPicUrl":"","auctionPrice":"","auctionSku":"空调面板颜色:白色","auctionTitle":"","buyCount":0,"carServiceLocation":"","cmsSource":"天猫","displayRatePic":"","displayRateSum":0,"displayUserLink":"","displayUserNick":"l***w","displayUserNumId":"","displayUserRateLink":"","dsr":0.0,"fromMall":true,"fromMemory":0,"gmtCreateTime":1493870627000,"id":309466541694,"pics":"","picsSmall":"","position":"","rateContent":"刚收到货，等待师傅来安装。","rateDate":"2017-05-04 12:03:47","reply":"","sellerId":3079263591,"serviceRateContent":"","structuredRateList":[],"tamllSweetLevel":2,"tmallSweetPic":"tmall-grade-t2-18.png","tradeEndTime":1493870593000,"tradeId":"","useful":true,"userIdEncryption":"","userInfo":"","userVipLevel":0,"userVipPic":""},{"aliMallSeller":false,"anony":true,"appendComment":"","attributes":"","attributesMap":"","aucNumId":"","auctionPicUrl":"","auctionPrice":"","auctionSku":"空调面板颜色:白色","auctionTitle":"","buyCount":0,"carServiceLocation":"","cmsSource":"天猫","displayRatePic":"","displayRateSum":0,"displayUserLink":"","displayUserNick":"q***9","displayUserNumId":"","displayUserRateLink":"","dsr":0.0,"fromMall":true,"fromMemory":0,"gmtCreateTime":1493879065000,"id":309549651294,"pics":"","picsSmall":"","position":"","rateContent":"安装服务很到位！","rateDate":"2017-05-04 14:24:25","reply":"","sellerId":3079263591,"serviceRateContent":"","structuredRateList":[],"tamllSweetLevel":3,"tmallSweetPic":"tmall-grade-t3-18.png","tradeEndTime":1493879037000,"tradeId":"","useful":true,"userIdEncryption":"","userInfo":"","userVipLevel":0,"userVipPic":""},{"aliMallSeller":false,"anony":true,"appendComment":"","attributes":"","attributesMap":"","aucNumId":"","auctionPicUrl":"","auctionPrice":"","auctionSku":"空调面板颜色:白色","auctionTitle":"","buyCount":0,"carServiceLocation":"","cmsSource":"天猫","displayRatePic":"","displayRateSum":0,"displayUserLink":"","displayUserNick":"j***9","displayUserNumId":"","displayUserRateLink":"","dsr":0.0,"fromMall":true,"fromMemory":0,"gmtCreateTime":1493868791000,"id":309247061857,"pics":"","picsSmall":"","position":"","rateContent":"非常好，大品牌。","rateDate":"2017-05-04 11:33:11","reply":"","sellerId":3079263591,"serviceRateContent":"","structuredRateList":[],"tamllSweetLevel":4,"tmallSweetPic":"tmall-grade-t4-18.png","tradeEndTime":1493868060000,"tradeId":"","useful":true,"userIdEncryption":"","userInfo":"","userVipLevel":0,"userVipPic":""},{"aliMallSeller":false,"anony":true,"appendComment":"","attributes":"","attributesMap":"","aucNumId":"","auctionPicUrl":"","auctionPrice":"","auctionSku":"空调面板颜色:白色","auctionTitle":"","buyCount":0,"carServiceLocation":"","cmsSource":"天猫","displayRatePic":"","displayRateSum":0,"displayUserLink":"","displayUserNick":"h***7","displayUserNumId":"","displayUserRateLink":"","dsr":0.0,"fromMall":true,"fromMemory":0,"gmtCreateTime":1493868325000,"id":309283768655,"pics":"","picsSmall":"","position":"","rateContent":"质量好！","rateDate":"2017-05-04 11:25:25","reply":"","sellerId":3079263591,"serviceRateContent":"","structuredRateList":[],"tamllSweetLevel":4,"tmallSweetPic":"tmall-grade-t4-18.png","tradeEndTime":1493118103000,"tradeId":"","useful":true,"userIdEncryption":"","userInfo":"","userVipLevel":0,"userVipPic":""},{"aliMallSeller":false,"anony":true,"appendComment":"","attributes":"","attributesMap":"","aucNumId":"","auctionPicUrl":"","auctionPrice":"","auctionSku":"空调面板颜色:白色","auctionTitle":"","buyCount":0,"carServiceLocation":"","cmsSource":"天猫","displayRatePic":"","displayRateSum":0,"displayUserLink":"","displayUserNick":"王***0","displayUserNumId":"","displayUserRateLink":"","dsr":0.0,"fromMall":true,"fromMemory":0,"gmtCreateTime":1493890912000,"id":309583597153,"pics":"","picsSmall":"","position":"","rateContent":"价格便宜","rateDate":"2017-05-04 17:41:52","reply":"","sellerId":3079263591,"serviceRateContent":"","structuredRateList":[],"tamllSweetLevel":1,"tmallSweetPic":"tmall-grade-t1-18.png","tradeEndTime":1493815755000,"tradeId":"","useful":true,"userIdEncryption":"","userInfo":"","userVipLevel":0,"userVipPic":""},{"aliMallSeller":false,"anony":true,"appendComment":"","attributes":"","attributesMap":"","aucNumId":"","auctionPicUrl":"","auctionPrice":"","auctionSku":"空调面板颜色:白色","auctionTitle":"","buyCount":0,"carServiceLocation":"","cmsSource":"天猫","displayRatePic":"","displayRateSum":0,"displayUserLink":"","displayUserNick":"奈***子","displayUserNumId":"","displayUserRateLink":"","dsr":0.0,"fromMall":true,"fromMemory":0,"gmtCreateTime":1493865260000,"id":309292514776,"pics":"","picsSmall":"","position":"","rateContent":"不错","rateDate":"2017-05-04 10:34:20","reply":"","sellerId":3079263591,"serviceRateContent":"","structuredRateList":[],"tamllSweetLevel":0,"tmallSweetPic":"","tradeEndTime":1493278061000,"tradeId":"","useful":true,"userIdEncryption":"","userInfo":"","userVipLevel":0,"userVipPic":""},{"aliMallSeller":false,"anony":true,"appendComment":"","attributes":"","attributesMap":"","aucNumId":"","auctionPicUrl":"","auctionPrice":"","auctionSku":"空调面板颜色:白色","auctionTitle":"","buyCount":0,"carServiceLocation":"","cmsSource":"天猫","displayRatePic":"","displayRateSum":0,"displayUserLink":"","displayUserNick":"a***8","displayUserNumId":"","displayUserRateLink":"","dsr":0.0,"fromMall":true,"fromMemory":0,"gmtCreateTime":1493895470000,"id":309516624830,"pics":"","picsSmall":"","position":"","rateContent":"很好","rateDate":"2017-05-04 18:57:50","reply":"","sellerId":3079263591,"serviceRateContent":"","structuredRateList":[],"tamllSweetLevel":3,"tmallSweetPic":"tmall-grade-t3-18.png","tradeEndTime":1493895441000,"tradeId":"","useful":true,"userIdEncryption":"","userInfo":"","userVipLevel":0,"userVipPic":""},{"aliMallSeller":false,"anony":true,"appendComment":"","attributes":"","attributesMap":"","aucNumId":"","auctionPicUrl":"","auctionPrice":"","auctionSku":"空调面板颜色:白色","auctionTitle":"","buyCount":0,"carServiceLocation":"","cmsSource":"天猫","displayRatePic":"","displayRateSum":0,"displayUserLink":"","displayUserNick":"星***5","displayUserNumId":"","displayUserRateLink":"","dsr":0.0,"fromMall":true,"fromMemory":0,"gmtCreateTime":1493885032000,"id":309317035846,"pics":"","picsSmall":"","position":"","rateContent":"给父母买的，买了两台，不知道怎么样！","rateDate":"2017-05-04 16:03:52","reply":"","sellerId":3079263591,"serviceRateContent":"","structuredRateList":[],"tamllSweetLevel":4,"tmallSweetPic":"tmall-grade-t4-18.png","tradeEndTime":1493609870000,"tradeId":"","useful":true,"userIdEncryption":"","userInfo":"","userVipLevel":0,"userVipPic":""}],"searchinfo":"","tags":""}